{
	"info": {
		"_postman_id": "6c4bc205-da3d-433b-8e12-eafca6be256e",
		"name": "api product",
		"schema": "https://schema.getpostman.com/json/collection/v2.1.0/collection.json"
	},
	"item": [
		{
			"name": "Get Products",
			"request": {
				"method": "GET",
				"header": [
					{
						"key": "Authorization",
						"value": "admin",
						"type": "text",
						"disabled": true
					}
				],
				"url": {
					"raw": "localhost:8080/api/productos/listar",
					"host": [
						"localhost"
					],
					"port": "8080",
					"path": [
						"api",
						"productos",
						"listar"
					]
				}
			},
			"response": []
		},
		{
			"name": "Get product by id",
			"protocolProfileBehavior": {
				"disableBodyPruning": true
			},
			"request": {
				"method": "GET",
				"header": [],
				"body": {
					"mode": "raw",
					"raw": ""
				},
				"url": {
					"raw": "localhost:8080/api/productos/listar/609468007d2aef3f318d7d17",
					"host": [
						"localhost"
					],
					"port": "8080",
					"path": [
						"api",
						"productos",
						"listar",
						"609468007d2aef3f318d7d17"
					]
				}
			},
			"response": []
		},
		{
			"name": "Create a product",
			"request": {
				"method": "POST",
				"header": [
					{
						"key": "Authorization",
						"value": "admin",
						"type": "text"
					}
				],
				"body": {
					"mode": "raw",
					"raw": "{\n    \"name\": \"nuevo\",\n    \"description\": \"este es\",\n    \"code\": \"code123\",\n    \"photoUrl\": \"phto uirlñ\",\n    \"price\": 123,\n    \"stock\": 10\n}",
					"options": {
						"raw": {
							"language": "json"
						}
					}
				},
				"url": {
					"raw": "localhost:8080/api/productos/agregar",
					"host": [
						"localhost"
					],
					"port": "8080",
					"path": [
						"api",
						"productos",
						"agregar"
					]
				}
			},
			"response": []
		},
		{
			"name": "update product",
			"request": {
				"method": "PUT",
				"header": [
					{
						"key": "Authorization",
						"value": "admin",
						"type": "text"
					}
				],
				"body": {
					"mode": "raw",
					"raw": "{\n    \"name\": \"CARLA\",\n    \"description\": \"CLARO\",\n    \"code\": \"CLARIN\",\n    \"photoUrl\": \"CLAROTE\",\n    \"price\": 1111,\n    \"stock\": 2222\n}",
					"options": {
						"raw": {
							"language": "json"
						}
					}
				},
				"url": {
					"raw": "localhost:8080/productos/actualizar/609ae89f4725732e2b83421e",
					"host": [
						"localhost"
					],
					"port": "8080",
					"path": [
						"productos",
						"actualizar",
						"609ae89f4725732e2b83421e"
					]
				}
			},
			"response": []
		},
		{
			"name": "delete product by id",
			"request": {
				"method": "DELETE",
				"header": [
					{
						"key": "Authorization",
						"value": "admin",
						"type": "text"
					}
				],
				"body": {
					"mode": "raw",
					"raw": "{\n    \"title\": \"test\",\n    \"price\": 10,\n    \"thumbnail\": \"url a foto\"\n}",
					"options": {
						"raw": {
							"language": "json"
						}
					}
				},
				"url": {
					"raw": "localhost:8080/productos/borrar/609ae787bff27129fda0392d",
					"host": [
						"localhost"
					],
					"port": "8080",
					"path": [
						"productos",
						"borrar",
						"609ae787bff27129fda0392d"
					]
				}
			},
			"response": []
		}
	]
}